Results of cfp_451_1

	Plate:1 - Wavelength:451/482

	6.072	5.925	5.983	5.994	7.161	3.511	3.452	3.563	3.449	3.303	3.448	3.535
	7.565	5.944	7.027	5.978	3.349	3.598	3.644	3.579	3.29	3.686	3.612	3.359
	3.092	3.077	3.228	3.097	3.46	3.632	3.312	3.385	3.486	3.341	3.419	3.411
	3.121	3.093	3.237	3.028	3.278	3.766	3.48	3.572	3.273	3.119	3.72	3.597
	2.888	3.089	3.332	3.023	3.027	2.746	3.068	2.919	2.912	3.332	3.165	3.341
	3.181	3.113	3.199	2.872	3.158	3.006	3.199	3.039	3.363	3.495	3.236	3.543
	2.943	3.267	3.174	3.171	2.872	2.857	3.164	3.073	3.329	3.332	3.364	3.526
	3.169	3.185	3.298	3.264	2.85	3.894	3.284	3.453	3.005	3.394	3.276	3.802

Results of yfp_520_1

	Plate:1 - Wavelength:520/542

	0.9795	0.9453	0.8558	1.15	27.49	0.4982	0.38	0.2553	0.2759	0.3462	0.4089	0.2283
	1.075	0.9898	1.055	0.9966	0.2795	0.3401	0.2631	0.3514	0.366	0.3294	0.3634	0.2607
	0.2607	0.3622	0.2919	0.2895	0.4403	0.5478	0.3777	0.3055	0.455	0.2975	0.4601	0.3067
	0.41	0.3861	0.2841	0.3479	0.3124	0.4918	0.2489	0.3795	0.2802	0.4125	0.2733	0.4503
	0.3291	0.3481	0.3159	0.418	0.3117	0.2721	0.3304	0.4768	0.292	0.19	0.3089	0.3698
	0.3073	0.3494	0.3187	0.3817	0.3044	0.4354	0.5124	0.1602	0.328	0.2413	0.3519	0.3253
	0.3363	0.5001	0.4416	0.2788	0.3314	0.2617	0.3967	0.3971	0.2191	0.3758	0.3503	0.3979
	0.27	0.3723	0.336	0.4589	0.4248	0.267	0.3817	0.1911	0.2719	0.3652	0.5166	0.3501

Results of rfp_584_607

	Plate:1 - Wavelength:584/607

	76.33	83.91	81.18	82.82	142	0.06428	0.1307	0.2195	0.1129	0.1563	0.05255	0.1321
	134.9	126.2	138.7	127	-0.01617	0.2142	0.07317	0.2309	0.1869	0.2689	0.1658	0.0264
	0.08699	0.1133	0.1806	0.01099	0.09433	0.2022	0.04045	0.007371	0.01279	0.1315	0.09189	0.005787
	0.15	0.01598	0.02956	0.03366	0.1294	0.0003919	0.1456	0.07014	0.2226	0.08384	0.1608	0.1942
	0.1606	0.006941	0.08628	0.2096	0.07075	0.1548	0.06991	0.2094	0.1014	0.1702	0.09542	-0.02382
	0.02238	0.1407	0.06944	0.07994	0.003758	0.002159	0.1202	0.1441	0.1564	-0.005528	0.07288	0.3546
	0.07898	0.09462	0.04	0.1474	0.3189	0.3055	0.01149	0.1217	0.05912	0.2749	0.16	0.0553
	0.2263	0.1102	-0.02444	0.06803	0.1312	0.05774	0.0265	-0.01435	0.154	0.1193	0.06442	0.04481

Results of Photometric1

	Plate:1 - Wavelength:600

	1.059	1.052	1.07	1.067	1.16	0.04	0.039	0.039	0.04	0.041	0.039	0.039
	1.169	1.203	1.139	1.128	0.04	0.04	0.04	0.04	0.04	0.039	0.04	0.04
	0.04	0.039	0.04	0.039	0.04	0.039	0.04	0.039	0.039	0.039	0.039	0.039
	0.039	0.04	0.04	0.04	0.04	0.04	0.039	0.039	0.039	0.039	0.039	0.039
	0.04	0.04	0.04	0.041	0.04	0.041	0.04	0.04	0.039	0.039	0.04	0.04
	0.04	0.04	0.041	0.04	0.041	0.04	0.04	0.04	0.04	0.039	0.04	0.04
	0.041	0.04	0.041	0.041	0.04	0.039	0.039	0.04	0.04	0.041	0.04	0.043
	0.039	0.04	0.042	0.041	0.041	0.041	0.04	0.04	0.04	0.043	0.041	0.041

